eplus  DNN
----------

CaloFlow	normalized	logit	 AUC	 0.693  0.690  0.699  0.692  0.695  0.695  0.688  0.694  0.694  0.698  |  0.694(3)
					 JSD	 0.085  0.085  0.094  0.085  0.087  0.089  0.084  0.089  0.088  0.093  |  0.088(3)
				rerun	 AUC	 0.690  0.695  0.694  0.691  0.691  0.692  0.697  0.686  0.690  0.690  |  0.692(3)
					 JSD	 0.085  0.090  0.090  0.086  0.086  0.085  0.089  0.082  0.083  0.085  |  0.086(3)

				no logit AUC	 0.710  0.732  0.727  0.719  0.749  0.736  0.741  0.725  0.743  0.742  |  0.732(12)
				   	 JSD	 0.114  0.131  0.125  0.123  0.149  0.136  0.137  0.125  0.131  0.143  |  0.131(10)
				rerun	 AUC	 0.722  0.723  0.730  0.723  0.724  0.724  0.724  0.740  0.729  0.724  |  0.726(5)
					 JSD	 0.122  0.118  0.130  0.121  0.121  0.124  0.124  0.136  0.129  0.119  |  0.124(5)

		no normalized	logit	 AUC	 0.680  0.677  0.675  0.677  0.667  0.678  0.676  0.676  0.677  0.675  |  0.676(3)
		   			 JSD	 0.069  0.071  0.068  0.071  0.062  0.071  0.071  0.070  0.070  0.069  |  0.069(3)
				rerun	 AUC	 0.672  0.668  0.635  0.661  0.677  0.675  0.672  0.677  0.663  0.672  |  0.667(12)
					 JSD	 0.068  0.064  0.042  0.058  0.071  0.070  0.068  0.071  0.062  0.068  |  0.064(8)

				no logit AUC	 0.570  0.581  0.602  0.631  0.593  0.618  0.577  0.601  0.536  0.562  |  0.587(26)
				   	 JSD	 0.007  0.012  0.022  0.046  0.015  0.034  0.011  0.026  0.003  0.009  |  0.019(13)
				rerun	 AUC     0.567  0.611  0.624  0.620  0.617  0.569  0.608  0.615  0.602  0.634  |  0.607(21)
					 JSD 	 0.008  0.031  0.035  0.031  0.030  0.007  0.031  0.032  0.024  0.038  |  0.027(19)


CaloGAN 	normalized	logit	 AUC	 1.000  1.000  1.000  1.000  1.000  1.000  1.000  1.000  1.000  1.000  |  1.000(0)
					 JSD	 0.999  0.998  0.998  0.998  0.998  0.998  0.998  0.998  0.998  0.997  |  0.998(0)

				no logit AUC	 1.000  1.000  1.000  1.000  1.000  1.000  1.000  1.000  1.000  1.000  |  1.000(0)
				   	 JSD	 0.990  0.989  0.989  0.988  0.989  0.988  0.989  0.990  0.989  0.989  |  0.989(1)

		no normalized	logit	 AUC	 1.000  1.000  1.000  1.000  1.000  1.000  1.000  1.000  1.000  1.000  |  1.000(0)
		   			 JSD	 0.998  0.994  0.980  0.995  0.993  0.995  0.993  0.994  0.995  0.997  |  0.993(5)

				no logit AUC	 0.999  0.999  0.999  0.999  0.999  0.999  0.999  0.999  0.999  0.999  |  0.999(0)
				   	 JSD	 0.959  0.954  0.961  0.963  0.962  0.962  0.962  0.964  0.963  0.956  |  0.961(3)

gamma  DNN
----------

CaloFlow	normalized	logit	 AUC	 0.682  0.671  0.668  0.684  0.688  0.690  0.683  0.692  0.681  0.680  |  0.682(7)
					 JSD	 0.076  0.068  0.063  0.076  0.082  0.082  0.074  0.085  0.076  0.076  |  0.076(6)

				no logit AUC	 0.698  0.699  0.697  0.699  0.699  0.697  0.697  0.699  0.697  0.699  |  0.698(1)
				   	 JSD	 0.076  0.073  0.072  0.067  0.072  0.074  0.072  0.074  0.069  0.074  |  0.072(2)

		no normalized	logit	 AUC	 0.665  0.667  0.666  0.666  0.664  0.667  0.660  0.660  0.664  0.665  |  0.664(2)
		   			 JSD	 0.062  0.064  0.062  0.062  0.061  0.065  0.058  0.059  0.061  0.062  |  0.062(2)

				no logit AUC	 0.534  0.531  0.536  0.537  0.530  0.537  0.569  0.527  0.540  0.530  |  0.537(11)
		   			 JSD	 0.003  0.003  0.004  0.004  0.003  0.003  0.011  0.003  0.004  0.003  |  0.004(2)


CaloGAN 	normalized	logit	 AUC	 1.000  1.000  1.000  1.000  1.000  1.000  1.000  1.000  1.000  1.000  |  1.000(0)
					 JSD	 1.000  0.999  1.000  1.000  1.000  1.000  1.000  1.000  1.000  1.000  |  1.000(0)

				no logit AUC	 1.000  1.000  1.000  1.000  1.000  1.000  1.000  1.000  1.000  1.000  |  1.000(0)
				   	 JSD	 0.995  0.995  0.995  0.995  0.995  0.996  0.995  0.994  0.996  0.995  |  0.995(1)

		no normalized	logit	 AUC	 1.000  1.000  1.000  1.000  1.000  1.000  1.000  1.000  1.000  1.000  |  1.000(0)
		   			 JSD	 1.000  0.999  0.999  0.999  0.999  0.999  0.999  0.998  1.000  1.000  |  0.999(1)

				no logit AUC	 1.000  1.000  1.000  1.000  1.000  1.000  1.000  1.000  1.000  1.000  |  1.000(0)
				   	 JSD	 0.984  0.986  0.983  0.984  0.987  0.987  0.990  0.988  0.986  0.985  |  0.986(2)

piplus  DNN
-----------

CaloFlow	normalized	logit	 AUC	 0.773  0.779  0.762  0.769  0.775  0.770  0.774  0.768  0.778  0.771  |  0.772(4)
					 JSD	 0.185  0.193  0.171  0.182  0.188  0.178  0.188  0.177  0.193  0.179  |  0.183(7)

				no logit AUC	 0.751  0.756  0.748  0.762  0.771  0.756  0.761  0.758  0.758  0.763  |  0.758(6)
				   	 JSD	 0.116  0.103  0.081  0.101  0.131  0.097  0.107  0.098  0.098  0.117  |  0.105(13)

		no normalized	logit	 AUC	 0.653  0.660  0.665  0.660  0.666  0.653  0.662  0.666  0.666  0.663  |  0.661(5)
		   			 JSD	 0.056  0.061  0.065  0.061  0.067  0.055  0.060  0.067  0.067  0.062  |  0.062(4)

				no logit AUC	 0.643  0.641  0.641  0.644  0.643  0.644  0.640  0.641  0.644  0.644  |  0.643(2)
		   			 JSD	 0.051  0.050  0.050  0.052  0.053  0.051  0.049  0.050  0.051  0.053  |  0.051(1)


CaloGAN 	normalized	logit	 AUC	 1.000  1.000  1.000  1.000  1.000  1.000  1.000  1.000  1.000  1.000  |  1.000(0)
					 JSD	 1.000  1.000  1.000  1.000  1.000  1.000  1.000  1.000  1.000  1.000  |  1.000(0)

				no logit AUC	 1.000  1.000  1.000  1.000  1.000  1.000  1.000  1.000  1.000  1.000  |  1.000(0)
				   	 JSD	 0.994  0.995  0.993  0.995  0.994  0.995  0.994  0.994  0.994  0.993  |  0.994(1)

		no normalized	logit	 AUC	 1.000  1.000  1.000  1.000  1.000  1.000  1.000  1.000  1.000  1.000  |  1.000(0)
		   			 JSD	 1.000  0.999  1.000  1.000  1.000  1.000  1.000  0.999  0.999  1.000  |  1.000(0)

				no logit AUC	 0.999  0.999  0.999  0.999  0.999  0.999  0.999  0.999  0.999  0.999  |  0.999(0)
				   	 JSD	 0.955  0.960  0.960  0.958  0.962  0.953  0.956  0.961  0.955  0.955  |  0.957(3)



eplus  CNN
----------

CaloFlow	normalized	logit	 AUC	 0.905  0.903  0.869  0.903  0.895  0.914  0.904  0.899  0.910  0.896  |  0.900(12)
					 JSD	 0.439  0.431  0.342  0.431  0.405  0.445  0.428  0.415  0.442  0.406  |  0.418(29)
				rerun	 AUC     0.898  0.923  0.909  0.909  0.910  0.905  0.899  0.908  0.923  0.898  |  0.908(9)
					 JSD     0.417  0.480  0.444  0.439  0.441  0.432  0.419  0.429  0.476  0.413  |  0.439(22)

				no logit AUC	 0.646  0.661  0.746  0.775  0.656  0.767  0.760  0.656  0.765  0.665  |  0.710(54)
				   	 JSD	 0.051  0.061  0.152  0.198  0.057  0.180  0.167  0.056  0.182  0.058  |  0.116(61)
				rerun	 AUC     0.768  0.671  0.658  0.653  0.768  0.642  0.772  0.644  0.652  0.652  |  0.688(54)
					 JSD     0.187  0.069  0.059  0.055  0.187  0.049  0.190  0.045  0.053  0.055  |  0.095(61)

		no normalized	logit	 AUC	 0.755  0.796  0.784  0.789  0.822  0.835  0.783  0.763  0.838  0.770  |  0.794(28)
		   			 JSD	 0.153  0.209  0.193  0.197  0.255  0.273  0.189  0.162  0.283  0.174  |  0.209(44)
				rerun	 AUC     0.753  0.794  0.822  0.761  0.760  0.781  0.698  0.774  0.752  0.734  |  0.763(32)
					 JSD     0.148  0.204  0.255  0.161  0.156  0.188  0.091  0.179  0.148  0.129  |  0.166(42)

				no logit AUC	 0.511  0.507  0.507  0.511  0.511  0.511  0.507  0.507  0.510  0.509  |  0.509(2)
				   	 JSD	 0.002  0.002  0.002  0.002  0.002  0.002  0.002  0.002  0.002  0.002  |  0.002(0)
				rerun	 AUC     0.510  0.509  0.509  0.510  0.508  0.508  0.508  0.510  0.508  0.510  |  0.509(1)
					 JSD     0.002  0.002  0.002  0.002  0.002  0.002  0.002  0.002  0.002  0.002  |  0.002(0)


CaloGAN 	normalized	logit	 AUC	 1.000  1.000  1.000  1.000  1.000  1.000  1.000  1.000  1.000  1.000  |  1.000(0)
					 JSD	 0.999  0.999  1.000  0.999  0.999  0.999  0.999  0.999  0.999  0.999  |  0.999(0)

				no logit AUC	 0.999  0.999  0.999  0.999  0.999  0.999  0.999  0.999  0.999  0.999  |  0.999(0)
				   	 JSD	 0.955  0.958  0.956  0.962  0.951  0.956  0.956  0.960  0.955  0.957  |  0.957(3)

		no normalized	logit	 AUC	 1.000  1.000  1.000  1.000  1.000  1.000  1.000  1.000  1.000  1.000  |  1.000(0)
		   			 JSD	 1.000  1.000  1.000  0.999  1.000  1.000  1.000  1.000  1.000  1.000  |  1.000(0)

				no logit AUC	 0.945  0.945  0.945  0.946  0.945  0.945  0.945  0.945  0.945  0.945  |  0.945(0)
				   	 JSD	 0.583  0.584  0.586  0.585  0.586  0.584  0.584  0.584  0.585  0.583  |  0.584(1)

gamma  CNN
----------

CaloFlow	normalized	logit	 AUC	 0.915  0.891  0.910  0.908  0.916  0.916  0.913  0.907  0.911  0.909  |  0.910(7)
					 JSD	 0.451  0.397  0.448  0.441  0.465  0.468  0.457  0.439  0.443  0.440  |  0.445(19)

				no logit AUC	 0.625  0.685  0.681  0.623  0.626  0.636  0.624  0.692  0.693  0.629  |  0.651(30)
				   	 JSD	 0.037  0.084  0.081  0.034  0.037  0.043  0.037  0.096  0.093  0.040  |  0.058(25)

		no normalized	logit	 AUC	 0.783  0.803  0.753  0.749  0.765  0.760  0.865  0.763  0.786  0.760  |  0.779(33)
		   			 JSD	 0.190  0.220  0.152  0.143  0.167  0.155  0.339  0.163  0.198  0.158  |  0.189(55)

				no logit AUC	 0.517  0.516  0.515  0.516  0.516  0.516  0.516  0.517  0.515  0.516  |  0.516(1)
		   			 JSD	 0.001  0.001  0.001  0.001  0.001  0.001  0.001  0.001  0.001  0.001  |  0.001(0)


CaloGAN 	normalized	logit	 AUC	 1.000  1.000  1.000  1.000  1.000  1.000  1.000  1.000  1.000  1.000  |  1.000(0)
					 JSD	 0.996  1.000  1.000  1.000  0.999  1.000  1.000  1.000  1.000  1.000  |  1.000(1)

				no logit AUC	 1.000  1.000  1.000  1.000  1.000  1.000  1.000  1.000  1.000  1.000  |  1.000(0)
				   	 JSD	 0.992  0.994  0.994  0.994  0.995  0.997  0.993  0.995  0.995  0.994  |  0.994(1)

		no normalized	logit	 AUC	 1.000  1.000  1.000  1.000  1.000  1.000  1.000  1.000  1.000  1.000  |  1.000(0)
		   			 JSD	 1.000  1.000  1.000  1.000  1.000  1.000  1.000  1.000  0.999  1.000  |  1.000(0)

				no logit AUC	 0.969  0.968  0.968  0.968  0.969  0.970  0.969  0.969  0.969  0.969  |  0.969(1)
				   	 JSD	 0.681  0.679  0.678  0.676  0.682  0.686  0.680  0.681  0.682  0.680  |  0.681(3)

piplus  CNN
-----------

CaloFlow	normalized	logit	 AUC	 0.966  0.967  0.968  0.967  0.965  0.965  0.966  0.965  0.966  0.966  |  0.966(1)
					 JSD	 0.652  0.662  0.660  0.662  0.647  0.655  0.655  0.634  0.654  0.653  |  0.653(8)

				no logit AUC	 0.808  0.806  0.807  0.814  0.807  0.828  0.810  0.833  0.815  0.806  |  0.813(9)
				   	 JSD	 0.235  0.223  0.236  0.248  0.236  0.270  0.238  0.276  0.249  0.231  |  0.244(16)

		no normalized	logit	 AUC	 0.908  0.912  0.911  0.895  0.895  0.900  0.901  0.898  0.902  0.897  |  0.902(6)
		   			 JSD	 0.447  0.460  0.460  0.414  0.414  0.427  0.428  0.424  0.434  0.412  |  0.432(17)

				no logit AUC	 0.554  0.553  0.556  0.552  0.555  0.554  0.553  0.555  0.553  0.553  |  0.554(1)
		   			 JSD	 0.010  0.009  0.010  0.009  0.010  0.010  0.009  0.009  0.009  0.009  |  0.009(0)


CaloGAN 	normalized	logit	 AUC	 1.000  1.000  1.000  1.000  1.000  1.000  1.000  1.000  1.000  1.000  |  1.000(0)
					 JSD	 1.000  1.000  1.000  1.000  1.000  1.000  1.000  1.000  1.000  1.000  |  1.000(0)

				no logit AUC	 1.000  1.000  1.000  1.000  1.000  1.000  1.000  1.000  1.000  1.000  |  1.000(0)
				   	 JSD	 0.997  0.995  0.996  0.996  0.996  0.997  0.995  0.997  0.996  0.995  |  0.996(1)

		no normalized	logit	 AUC	 1.000  1.000  1.000  1.000  1.000  1.000  1.000  1.000  1.000  1.000  |  1.000(0)
		   			 JSD	 1.000  1.000  1.000  1.000  1.000  1.000  1.000  1.000  1.000  1.000  |  1.000(0)

				no logit AUC	 0.980  0.982  0.982  0.991  0.982  0.985  0.982  0.983  0.983  0.981  |  0.983(3)
				   	 JSD	 0.743  0.755  0.753  0.827  0.759  0.779  0.759  0.765  0.762  0.747  |  0.765(23)



python classify.py -p=merged_eplus_CaloFlow_eplus --data_dir=/home/ck756/ML_source/CaloGAN/ --save_dir=./classifier/rerun_DNN_normalized/logit/eplus_CaloFlow_more_stat_1/ --mode=DNN --n_epochs=30 --normalize --use_logit
